<?xml version="1.0" encoding="utf-8"?>
<!-- Generator: Adobe Illustrator 21.1.0, SVG Export Plug-In . SVG Version: 6.00 Build 0)  -->
<svg version="1.1" id="Calque_1" xmlns="http://www.w3.org/2000/svg" xmlns:xlink="http://www.w3.org/1999/xlink" x="0px" y="0px"
	 viewBox="0 0 24 24" style="enable-background:new 0 0 24 24;" xml:space="preserve">
<style type="text/css">
	.st0{fill:none;stroke:#B70D18;stroke-linejoin:round;stroke-miterlimit:10;}
	.st1{fill:none;stroke:#B70D18;stroke-linecap:round;stroke-linejoin:round;stroke-miterlimit:10;}
	.st2{fill:none;}
</style>
<g id="Outline_Icons_1_">
	<g id="Outline_Icons">
		<g>
			<rect x="0.5" y="0.5" class="st0" width="23" height="23"/>
			<polyline class="st1" points="3.5,7.5 5.5,9.5 10.5,4.5 			"/>
			<polyline class="st1" points="3.5,16.5 5.5,18.5 10.5,13.5 			"/>
			<line class="st1" x1="12.5" y1="8.5" x2="20.5" y2="8.5"/>
			<line class="st1" x1="12.5" y1="17.5" x2="20.5" y2="17.5"/>
		</g>
	</g>
	<g id="New_icons_1_">
	</g>
</g>
<g id="Invisible_Shape">
	<rect class="st2" width="24" height="24"/>
</g>
</svg>
