<?xml version="1.0" encoding="utf-8"?>
<!-- Generator: Adobe Illustrator 21.1.0, SVG Export Plug-In . SVG Version: 6.00 Build 0)  -->
<svg version="1.1" id="Calque_1" xmlns="http://www.w3.org/2000/svg" xmlns:xlink="http://www.w3.org/1999/xlink" x="0px" y="0px"
	 viewBox="0 0 24 24" style="enable-background:new 0 0 24 24;" xml:space="preserve">
<style type="text/css">
	.st0{fill:none;stroke:#B70D18;stroke-linecap:round;stroke-linejoin:round;stroke-miterlimit:10;}
	.st1{fill:none;stroke:#B70D18;stroke-miterlimit:10;}
	.st2{fill:none;}
</style>
<g id="Outline_Icons_1_">
	<g id="Outline_Icons">
		<g>
			<g>
				<path class="st0" d="M23.5,19.5c0,2.2-1.8,4-4,4h-15c-2.2,0-4-1.8-4-4v-15c0-2.2,1.8-4,4-4h15c2.2,0,4,1.8,4,4V19.5z"/>
			</g>
			<g>
				<circle class="st1" cx="12" cy="12.5" r="2.5"/>
				<path class="st0" d="M17.4,11.4l1.6-0.9l-1.8-3l-1.6,0.9c-0.6-0.5-1.2-0.9-1.9-1.1V5.5h-3.5v1.8C9.5,7.5,8.9,7.9,8.4,8.4
					L6.8,7.5l-1.8,3l1.5,0.9c-0.1,0.7-0.1,1.4,0,2.2l-1.6,0.9l1.8,3l1.5-0.9c0.6,0.5,1.2,0.9,1.9,1.1v1.8h3.5v-1.8
					c0.7-0.2,1.4-0.6,1.9-1.1l1.6,0.9l1.8-3l-1.5-0.9C17.5,12.9,17.5,12.1,17.4,11.4z"/>
			</g>
		</g>
	</g>
	<g id="New_icons_1_">
	</g>
</g>
<g id="Invisible_Shape">
	<rect class="st2" width="24" height="24"/>
</g>
</svg>
