<?xml version="1.0" encoding="utf-8"?>
<!-- Generator: Adobe Illustrator 21.1.0, SVG Export Plug-In . SVG Version: 6.00 Build 0)  -->
<svg version="1.1" id="Calque_1" xmlns="http://www.w3.org/2000/svg" xmlns:xlink="http://www.w3.org/1999/xlink" x="0px" y="0px"
	 viewBox="0 0 24 24" style="enable-background:new 0 0 24 24;" xml:space="preserve">
<style type="text/css">
	.st0{fill:none;stroke:#F57C00;stroke-linecap:round;stroke-linejoin:round;stroke-miterlimit:10;}
	.st1{fill:none;}
</style>
<g id="Outline_Icons_1_">
	<g id="Outline_Icons">
		<g>
			<path class="st0" d="M15.8,16.5h2.4c0,0,4.3-0.6,4.3-4.8c0-2.7-2.2-4.9-5-4.8c-1.1-2.3-3.4-3.8-6-3.8C7.9,3.1,5,5.9,4.8,9.4
				c-2.2-0.5-4.3,1.2-4.3,3.5c0,3.6,3.8,3.6,3.8,3.6h2.9"/>
			<line class="st0" x1="11.5" y1="11" x2="11.5" y2="22"/>
			<polyline class="st0" points="14.5,14 11.5,11 8.5,14 			"/>
		</g>
	</g>
	<g id="New_icons_1_">
	</g>
</g>
<g id="Invisible_Shape">
	<rect class="st1" width="24" height="24"/>
</g>
</svg>
