<?xml version="1.0" encoding="utf-8"?>
<!-- Generator: Adobe Illustrator 21.1.0, SVG Export Plug-In . SVG Version: 6.00 Build 0)  -->
<svg version="1.1" id="Calque_1" xmlns="http://www.w3.org/2000/svg" xmlns:xlink="http://www.w3.org/1999/xlink" x="0px" y="0px"
	 viewBox="0 0 24 24" style="enable-background:new 0 0 24 24;" xml:space="preserve">
<style type="text/css">
	.st0{fill:none;stroke:#F57C00;stroke-miterlimit:10;}
	.st1{fill:none;}
</style>
<g id="Outline_Icons_1_">
	<g id="Outline_Icons">
		<g>
			<path class="st0" d="M9.5,22.5h9c0,0,0-3.4-0.5-4.8c-0.4-1.2-3.4-2.1-6.5-3.3V12c0,0,1-0.6,1-3c1,0,1-2,0-2c0-0.2,1.1-1.7,0.8-3
				c-0.5-1.9-6.2-1.9-6.6,0C4.3,3.5,5.5,6.6,5.5,7v2c0,2.4,2,3,2,3v2.5c-2.8,1.1-6.1,2-6.5,3.3c-0.5,1.4-0.5,4.8-0.5,4.8H9.5z"/>
			<path class="st0" d="M21,22.5h2.5c0,0,0-3.4-0.5-4.8c-0.4-1.2-3.4-2.6-6.5-3.8v-1.5c0,0,1-0.6,1-3c1,0,1-2,0-2
				c0-0.2,1.1-1.9,0.8-3.2C18,3.4,16.1,2,14.6,3"/>
		</g>
	</g>
	<g id="New_icons_1_">
	</g>
</g>
<g id="Invisible_Shape">
	<rect class="st1" width="24" height="24"/>
</g>
</svg>
