<?xml version="1.0" encoding="utf-8"?>
<!-- Generator: Adobe Illustrator 21.1.0, SVG Export Plug-In . SVG Version: 6.00 Build 0)  -->
<svg version="1.1" id="Calque_1" xmlns="http://www.w3.org/2000/svg" xmlns:xlink="http://www.w3.org/1999/xlink" x="0px" y="0px"
	 viewBox="0 0 24 24" style="enable-background:new 0 0 24 24;" xml:space="preserve">
<style type="text/css">
	.st0{fill:none;stroke:#F57C00;stroke-linecap:round;stroke-linejoin:round;stroke-miterlimit:10;}
	.st1{fill:none;}
</style>
<g id="Outline_Icons">
	<g>
		<g>
			<polygon class="st0" points="21.5,23.5 2.5,23.5 2.5,0.5 15.5,0.5 21.5,6.5 			"/>
			<polyline class="st0" points="15.5,0.5 15.5,6.5 21.5,6.5 			"/>
		</g>
		<polyline class="st0" points="14,18.5 11.5,18.5 11.5,13.5 		"/>
		<path class="st0" d="M16.3,17.3c0,0.7,0.6,1.2,1.2,1.2c0.7,0,1.2-0.6,1.2-1.3c0-1.1-1-1.1-1.2-1.2c-0.2-0.1-1.2-0.1-1.2-1.2
			c0-0.7,0.6-1.3,1.2-1.3c0.7,0,1.2,0.5,1.2,1.2"/>
		<g>
			<line class="st0" x1="5.5" y1="13.5" x2="8.5" y2="18.5"/>
			<line class="st0" x1="8.5" y1="13.5" x2="5.5" y2="18.5"/>
		</g>
	</g>
</g>
<g id="Invisible_Shape">
	<rect class="st1" width="24" height="24"/>
</g>
</svg>
